%YAML 1.1
%TAG !u! tag:unity3d.com,2011:
--- !u!114 &11400000
MonoBehaviour:
  m_ObjectHideFlags: 0
  m_CorrespondingSourceObject: {fileID: 0}
  m_PrefabInstance: {fileID: 0}
  m_PrefabAsset: {fileID: 0}
  m_GameObject: {fileID: 0}
  m_Enabled: 1
  m_EditorHideFlags: 0
  m_Script: {fileID: 11500000, guid: eaee159a4131a0f4bbb392edbc3d3d50, type: 3}
  m_Name: HumanAvalanche
  m_EditorClassIdentifier: 
  cardName: HumanAvalanche
  targetNodeType: terraformers
  cardType: {fileID: 11400000, guid: 30d155eb81593ec45b8878c30f75853a, type: 2}
  properties:
  - stringValue: Human Avalanche
    intValue: 0
    sprite: {fileID: 0}
    element: {fileID: 11400000, guid: 058b73c0dbefe4648b1eae1616b28cda, type: 2}
  - stringValue: se sei in una casella di tipo montagna puoi spostarti nuovamente
      questo turno
    intValue: 0
    sprite: {fileID: 0}
    element: {fileID: 11400000, guid: 677c8f7228271a047b9b31fbf71c62ef, type: 2}
  - stringValue: 2
    intValue: 0
    sprite: {fileID: 0}
    element: {fileID: 11400000, guid: 73f997a75de465846b85e358b95a6b91, type: 2}
  - stringValue: 1
    intValue: 0
    sprite: {fileID: 0}
    element: {fileID: 11400000, guid: e9612f2ad5cc49f4489dc5966264e07a, type: 2}
  - stringValue: 
    intValue: 0
    sprite: {fileID: 21300000, guid: e2d38e210807caf429618c1304d17054, type: 3}
    element: {fileID: 11400000, guid: 5409ac85b5d6c60428cf821d5c398590, type: 2}
  - stringValue: 
    intValue: 0
    sprite: {fileID: 21300000, guid: c98e26e56593c2749abdb8cee748a92c, type: 3}
    element: {fileID: 11400000, guid: 182d648731a45f740b9ae8e7d1002f96, type: 2}
  - stringValue: 
    intValue: 0
    sprite: {fileID: 21300000, guid: f58200f3ca6027a4d8163628678464be, type: 3}
    element: {fileID: 11400000, guid: d6b34d6e08587a84385eca26325fafc4, type: 2}
  - stringValue: 
    intValue: 0
    sprite: {fileID: 21300000, guid: f53a6fd60ac3bc0469932f396f680eac, type: 3}
    element: {fileID: 11400000, guid: 4b3727507cc6da24c936cf68a658cbec, type: 2}
