%YAML 1.1
%TAG !u! tag:unity3d.com,2011:
--- !u!114 &11400000
MonoBehaviour:
  m_ObjectHideFlags: 0
  m_CorrespondingSourceObject: {fileID: 0}
  m_PrefabInstance: {fileID: 0}
  m_PrefabAsset: {fileID: 0}
  m_GameObject: {fileID: 0}
  m_Enabled: 1
  m_EditorHideFlags: 0
  m_Script: {fileID: 11500000, guid: 5b8f21998d1d4bc4083fbddbf781530f, type: 3}
  m_Name: Mouse Hold With Card
  m_EditorClassIdentifier: 
  currentCard: {fileID: 11400000, guid: 536b23a84e22d174dae4280b62d43da3, type: 2}
  playerControlState: {fileID: 11400000, guid: f2d62fcb53ada3e4989781d8e4274681, type: 2}
  onPlayerControlState: {fileID: 11400000, guid: 0fe30747aee0c194a9d68aeed2fa976f,
    type: 2}
