%YAML 1.1
%TAG !u! tag:unity3d.com,2011:
--- !u!1 &5157292623784887193
GameObject:
  m_ObjectHideFlags: 0
  m_CorrespondingSourceObject: {fileID: 0}
  m_PrefabInstance: {fileID: 0}
  m_PrefabAsset: {fileID: 0}
  serializedVersion: 6
  m_Component:
  - component: {fileID: 5157292623784887189}
  - component: {fileID: 6214104514149982851}
  - component: {fileID: 5157292623784887195}
  - component: {fileID: 5157292623784887184}
  m_Layer: 0
  m_Name: Network
  m_TagString: Untagged
  m_Icon: {fileID: 0}
  m_NavMeshLayer: 0
  m_StaticEditorFlags: 0
  m_IsActive: 1
--- !u!4 &5157292623784887189
Transform:
  m_ObjectHideFlags: 0
  m_CorrespondingSourceObject: {fileID: 0}
  m_PrefabInstance: {fileID: 0}
  m_PrefabAsset: {fileID: 0}
  m_GameObject: {fileID: 5157292623784887193}
  m_LocalRotation: {x: 0, y: 0, z: 0, w: 1}
  m_LocalPosition: {x: -4.75, y: 0.41, z: 0.4}
  m_LocalScale: {x: 1, y: 1, z: 1}
  m_Children: []
  m_Father: {fileID: 0}
  m_RootOrder: 0
  m_LocalEulerAnglesHint: {x: 0, y: 0, z: 0}
--- !u!114 &6214104514149982851
MonoBehaviour:
  m_ObjectHideFlags: 0
  m_CorrespondingSourceObject: {fileID: 0}
  m_PrefabInstance: {fileID: 0}
  m_PrefabAsset: {fileID: 0}
  m_GameObject: {fileID: 5157292623784887193}
  m_Enabled: 1
  m_EditorHideFlags: 0
  m_Script: {fileID: 11500000, guid: b602927f97db9dd4e9efa009eb1a8cdf, type: 3}
  m_Name: 
  m_EditorClassIdentifier: 
  dontDestroyOnLoad: 1
  runInBackground: 1
  startOnHeadless: 1
  showDebugMessages: 0
  serverTickRate: 30
  offlineScene: Assets/Scenes/Lobby.unity
  onlineScene: Assets/Scenes/RoomScene.unity
  transport: {fileID: 5157292623784887195}
  networkAddress: localhost
  maxConnections: 4
  disconnectInactiveConnections: 0
  disconnectInactiveTimeout: 60
  authenticator: {fileID: 0}
  playerPrefab: {fileID: 4367171030734531582, guid: 707bee3e06e1ab046b56f4b4811104cf,
    type: 3}
  autoCreatePlayer: 1
  playerSpawnMethod: 0
  spawnPrefabs: []
  showRoomGUI: 1
  minPlayers: 1
  roomPlayerPrefab: {fileID: 8246040379298507964, guid: ada8d7713377f63468f6aca579245666,
    type: 3}
  RoomScene: Assets/Scenes/RoomScene.unity
  GameplayScene: Assets/Scenes/NetworkMainScene.unity
  _allPlayersReady: 0
  roomSlots: []
  map: {fileID: 0}
  showStartButton: 0
--- !u!114 &5157292623784887195
MonoBehaviour:
  m_ObjectHideFlags: 0
  m_CorrespondingSourceObject: {fileID: 0}
  m_PrefabInstance: {fileID: 0}
  m_PrefabAsset: {fileID: 0}
  m_GameObject: {fileID: 5157292623784887193}
  m_Enabled: 1
  m_EditorHideFlags: 0
  m_Script: {fileID: 11500000, guid: c7424c1070fad4ba2a7a96b02fbeb4bb, type: 3}
  m_Name: 
  m_EditorClassIdentifier: 
  OnClientConnected:
    m_PersistentCalls:
      m_Calls: []
  OnClientDataReceived:
    m_PersistentCalls:
      m_Calls: []
  OnClientError:
    m_PersistentCalls:
      m_Calls: []
  OnClientDisconnected:
    m_PersistentCalls:
      m_Calls: []
  OnServerConnected:
    m_PersistentCalls:
      m_Calls: []
  OnServerDataReceived:
    m_PersistentCalls:
      m_Calls: []
  OnServerError:
    m_PersistentCalls:
      m_Calls: []
  OnServerDisconnected:
    m_PersistentCalls:
      m_Calls: []
  port: 7777
  NoDelay: 1
  serverMaxMessageSize: 16384
  serverMaxReceivesPerTick: 10000
  clientMaxMessageSize: 16384
  clientMaxReceivesPerTick: 1000
--- !u!114 &5157292623784887184
MonoBehaviour:
  m_ObjectHideFlags: 0
  m_CorrespondingSourceObject: {fileID: 0}
  m_PrefabInstance: {fileID: 0}
  m_PrefabAsset: {fileID: 0}
  m_GameObject: {fileID: 5157292623784887193}
  m_Enabled: 1
  m_EditorHideFlags: 0
  m_Script: {fileID: 11500000, guid: c761308e733c51245b2e8bb4201f46dc, type: 3}
  m_Name: 
  m_EditorClassIdentifier: 
  secretHandshake: 5699646780438068846
  serverBroadcastListenPort: 47777
  ActiveDiscoveryInterval: 3
  transport: {fileID: 0}
  OnServerFound:
    m_PersistentCalls:
      m_Calls:
      - m_Target: {fileID: 0}
        m_MethodName: OnDiscoveredServer
        m_Mode: 0
        m_Arguments:
          m_ObjectArgument: {fileID: 0}
          m_ObjectArgumentAssemblyTypeName: 
          m_IntArgument: 0
          m_FloatArgument: 0
          m_StringArgument: 
          m_BoolArgument: 0
        m_CallState: 2
